37	464
0	60|1.000000	61|0.398246	62|0.248832	63|0.135104	180|0.287100	181|0.326596	299|0.104159	300|0.152919	301|0.581426
1	59|0.153440	60|0.923031	61|0.196161	62|0.108439	180|0.244526	181|0.307573	301|0.590349
2	59|0.121389	60|0.731010	61|0.163300	180|0.206986	181|0.233543	301|0.470873
3	60|0.568282	61|0.119185	180|0.173536	181|0.184559	301|0.368258
4	60|0.533163	61|0.123616	180|0.154227	181|0.176159	301|0.326976
5	60|0.470440	180|0.143994	181|0.152270	301|0.277205
6	60|0.417453	180|0.139861	181|0.139723	301|0.249775
7	60|0.373908	180|0.120779	181|0.123078	301|0.211261
8	60|0.317944	180|0.105339	181|0.105455	301|0.174259
9	60|0.275633	301|0.149002
10	60|0.248649	301|0.131777
11	47|0.208096	48|0.504313	49|0.457097	50|0.125737	51|0.101043	60|0.223336	145|0.112553	241|0.228222	242|0.295430	243|0.141523	301|0.115085	338|0.268599	339|0.263266
12	46|0.116481	47|0.203996	48|0.821233	49|0.433768	50|0.181585	51|0.103092	60|0.202090	145|0.204623	241|0.139855	242|0.500548	301|0.101010	337|0.110433	338|0.340314	339|0.312676	340|0.107726
13	46|0.106348	47|0.167601	48|0.670989	49|0.356123	50|0.147620	60|0.166287	145|0.176536	241|0.122676	242|0.401038	338|0.275730	339|0.246886
14	47|0.141906	48|0.520358	49|0.285077	50|0.112336	60|0.131968	145|0.142089	242|0.301820	338|0.222921	339|0.186641
15	47|0.116489	48|0.441875	49|0.233135	60|0.131192	145|0.116574	242|0.265935	338|0.195029	339|0.158737
16	47|0.105705	48|0.406752	49|0.211398	60|0.134555	145|0.108801	242|0.244360	338|0.181665	339|0.141949
17	48|0.361181	49|0.192325	60|0.120735	242|0.219876	338|0.167453	339|0.129267
18	48|0.324194	49|0.175252	242|0.194910	338|0.153930	339|0.112278
19	48|0.284616	49|0.149527	242|0.168263	338|0.137189
20	48|0.240193	49|0.123626	242|0.141812	338|0.116824
21	48|0.212525	49|0.112311	242|0.126360	338|0.105840
22	48|0.192379	49|0.101081	242|0.109924
23	48|0.176455	49|0.104093	53|0.123063	54|0.876417	55|0.184341	162|0.116459	163|0.110592	242|0.100432	270|0.166270	271|0.536151	379|0.499700
24	48|0.138252	53|0.111997	54|0.764030	55|0.136584	162|0.105455	270|0.122717	271|0.452554	379|0.431583
25	48|0.141125	54|0.590493	55|0.121265	270|0.107986	271|0.356231	379|0.345487
26	48|0.123863	54|0.454510	270|0.102301	271|0.292763	379|0.271821
27	54|0.418556	271|0.272281	379|0.245648
28	54|0.375672	271|0.237530	379|0.225276
29	54|0.328487	271|0.203406	379|0.201023
30	54|0.284237	271|0.173414	379|0.175772
31	54|0.242214	271|0.142650	379|0.152094
32	54|0.212660	271|0.117326	379|0.130965
33	54|0.192696	271|0.101459	379|0.115093
34	37|0.156523	54|0.176513	108|0.135872	109|0.118032	180|0.137823	181|0.141867	252|0.136374	253|0.164772	324|0.134188	325|0.185993	326|0.119769
35	54|0.144114	108|0.249328	109|0.109692	180|0.195166	181|0.208019	252|0.122604	253|0.311617	325|0.388801	397|0.101502
